%YAML 1.1
%TAG !u! tag:unity3d.com,2011:
--- !u!181963792 &2655988077585873504
Preset:
  m_ObjectHideFlags: 0
  m_CorrespondingSourceObject: {fileID: 0}
  m_PrefabInstance: {fileID: 0}
  m_PrefabAsset: {fileID: 0}
  m_Name: ImageFadeIn
  m_TargetType:
    m_NativeTypeID: 114
    m_ManagedTypePPtr: {fileID: 11500000, guid: 440e3f205c52442c7a9313798fadf7c5,
      type: 3}
    m_ManagedTypeFallback: 
  m_Properties:
  - target: {fileID: 0}
    propertyPath: m_Enabled
    value: 1
    objectReference: {fileID: 0}
  - target: {fileID: 0}
    propertyPath: m_EditorHideFlags
    value: 0
    objectReference: {fileID: 0}
  - target: {fileID: 0}
    propertyPath: m_EditorClassIdentifier
    value: 
    objectReference: {fileID: 0}
  - target: {fileID: 0}
    propertyPath: sequenceId
    value: Visible
    objectReference: {fileID: 0}
  - target: {fileID: 0}
    propertyPath: controllableByParent
    value: 1
    objectReference: {fileID: 0}
  - target: {fileID: 0}
    propertyPath: playOnEnable
    value: 0
    objectReference: {fileID: 0}
  - target: {fileID: 0}
    propertyPath: editorAutoRewind
    value: 0
    objectReference: {fileID: 0}
  - target: {fileID: 0}
    propertyPath: tweens.Array.size
    value: 1
    objectReference: {fileID: 0}
  - target: {fileID: 0}
    propertyPath: tweens.Array.data[0].delay
    value: 0
    objectReference: {fileID: 0}
  - target: {fileID: 0}
    propertyPath: tweens.Array.data[0].duration
    value: 0.3
    objectReference: {fileID: 0}
  - target: {fileID: 0}
    propertyPath: tweens.Array.data[0].targetQuery
    value: 
    objectReference: {fileID: 0}
  - target: {fileID: 0}
    propertyPath: tweens.Array.data[0].componentTypeName
    value: UnityEngine.UI.Image, UnityEngine.UI, Version=1.0.0.0, Culture=neutral,
      PublicKeyToken=null
    objectReference: {fileID: 0}
  - target: {fileID: 0}
    propertyPath: tweens.Array.data[0].tweenMethodTypeName
    value: DG.Tweening.DOTweenModuleUI, Assembly-CSharp, Version=0.0.0.0, Culture=neutral,
      PublicKeyToken=null
    objectReference: {fileID: 0}
  - target: {fileID: 0}
    propertyPath: tweens.Array.data[0].tweenMethodName
    value: DOFade
    objectReference: {fileID: 0}
  - target: {fileID: 0}
    propertyPath: tweens.Array.data[0].endValue
    value: 1
    objectReference: {fileID: 0}
  - target: {fileID: 0}
    propertyPath: delay
    value: 0
    objectReference: {fileID: 0}
  - target: {fileID: 0}
    propertyPath: timeScale
    value: 1
    objectReference: {fileID: 0}
  - target: {fileID: 0}
    propertyPath: showEvents
    value: 0
    objectReference: {fileID: 0}
  - target: {fileID: 0}
    propertyPath: onPlay.m_PersistentCalls.m_Calls.Array.size
    value: 0
    objectReference: {fileID: 0}
  - target: {fileID: 0}
    propertyPath: onComplete.m_PersistentCalls.m_Calls.Array.size
    value: 0
    objectReference: {fileID: 0}
